loop_filter.vcd
$date
	Mon Oct 21 13:30:01 2019
$end
$version
	Icarus Verilog
$end
$timescale
	1s
$end
$scope module loop_filter $end
$var reg 1 ! clk $end
$var reg 12 " dig_ctrl_voltage [11:0] $end
$var reg 32 # integral_sum [31:0] $end
$var reg 1 $ phase_error $end
$var reg 32 % proportional_out [31:0] $end
$var reg 32 & total_sum [31:0] $end
$upscope $end
$enddefinitions $end
#0
$dumpvars
b0 &
b0 %
1$
b0 #
b0 "
0!
$end
#10
b10100 %
b1 #
1!
#20
0!
#30
b10101 "
b10 #
1!
#40
0!
#50
b11 #
b10110 "
1!
#60
0!
#70
b10111 "
b100 #
1!
#80
0!
#90
b101 #
b11000 "
1!
#100
0!
#110
b11001 "
b110 #
1!
#120
0!
#130
b111 #
b11010 "
1!
#140
0!
#150
b11011 "
b1000 #
1!
#160
0!
#170
b1001 #
b11100 "
1!
#180
0!
#190
b11101 "
b1010 #
1!
#200
0!
#210
b1011 #
b11110 "
1!
#220
0!
#230
b11111 "
b1100 #
1!
#240
0!
#250
b1101 #
b100000 "
1!
#260
0!
#270
b100001 "
b1110 #
1!
#280
0!
#290
b1111 #
b100010 "
1!
#300
0!
#310
b100011 "
b10000 #
1!
#320
0!
#330
b10001 #
b100100 "
1!
#340
0!
#350
b100101 "
b10010 #
1!
#360
0!
#370
b10011 #
b100110 "
1!
#380
0!
#390
b100111 "
b10100 #
1!
#400
0!
#410
b10101 #
b101000 "
1!
#420
0!
#430
b101001 "
b10110 #
1!
#440
0!
#450
b10111 #
b101010 "
1!
#460
0!
#470
b101011 "
b11000 #
1!
#480
0!
#490
b11001 #
b101100 "
1!
#500
0!
#510
b101101 "
b11010 #
1!
#520
0!
#530
b11011 #
b101110 "
1!
#540
0!
#550
b101111 "
b11100 #
1!
#560
0!
#570
b11101 #
b110000 "
1!
#580
0!
#590
b110001 "
b11110 #
1!
#600
0!
#610
b11111 #
b110010 "
1!
#620
0!
#630
b110011 "
b100000 #
1!
#640
0!
#650
b100001 #
b110100 "
1!
#660
0!
#670
b110101 "
b100010 #
1!
#680
0!
#690
b100011 #
b110110 "
1!
#700
0!
#710
b110111 "
b100100 #
1!
#720
0!
#730
b100101 #
b111000 "
1!
#740
0!
#750
b111001 "
b100110 #
1!
#760
0!
#770
b100111 #
b111010 "
1!
#780
0!
#790
b111011 "
b101000 #
1!
#800
0!
#810
b101001 #
b111100 "
1!
#820
0!
#830
b111101 "
b101010 #
1!
#840
0!
#850
b101011 #
b111110 "
1!
#860
0!
#870
b111111 "
b101100 #
1!
#880
0!
#890
b101101 #
b1000000 "
1!
#900
0!
#910
b1000001 "
b101110 #
1!
#920
0!
#930
b101111 #
b1000010 "
1!
#940
0!
#950
b1000011 "
b110000 #
1!
#960
0!
#970
b110001 #
b1000100 "
1!
#980
0!
#990
b1000101 "
b110010 #
1!
#1000
0!
0$
#1010
b110001 #
b11110 "
1!
#1020
0!
#1030
b11101 "
b110000 #
1!
#1040
0!
#1050
b101111 #
b11100 "
1!
#1060
0!
#1070
b11011 "
b101110 #
1!
#1080
0!
#1090
b101101 #
b11010 "
1!
#1100
0!
#1110
b11001 "
b101100 #
1!
#1120
0!
#1130
b101011 #
b11000 "
1!
#1140
0!
#1150
b10111 "
b101010 #
1!
#1160
0!
#1170
b101001 #
b10110 "
1!
#1180
0!
#1190
b10101 "
b101000 #
1!
#1200
0!
#1210
b100111 #
b10100 "
1!
#1220
0!
#1230
b10011 "
b100110 #
1!
#1240
0!
#1250
b100101 #
b10010 "
1!
#1260
0!
#1270
b10001 "
b100100 #
1!
#1280
0!
#1290
b100011 #
b10000 "
1!
#1300
0!
#1310
b1111 "
b100010 #
1!
#1320
0!
#1330
b100001 #
b1110 "
1!
#1340
0!
#1350
b1101 "
b100000 #
1!
#1360
0!
#1370
b11111 #
b1100 "
1!
#1380
0!
#1390
b1011 "
b11110 #
1!
#1400
0!
#1410
b11101 #
b1010 "
1!
#1420
0!
#1430
b1001 "
b11100 #
1!
#1440
0!
#1450
b11011 #
b1000 "
1!
#1460
0!
#1470
b111 "
b11010 #
1!
#1480
0!
#1490
b11001 #
b110 "
1!
#1500
0!
#1510
b101 "
b11000 #
1!
#1520
0!
#1530
b10111 #
b100 "
1!
#1540
0!
#1550
b11 "
b10110 #
1!
#1560
0!
#1570
b10101 #
b10 "
1!
#1580
0!
#1590
b1 "
b10100 #
1!
#1600
0!
#1610
b10011 #
b0 "
1!
#1620
0!
#1630
b10011 "
b10010 #
1!
#1640
0!
#1650
b10001 #
b10010 "
1!
#1660
0!
#1670
b10001 "
b10000 #
1!
#1680
0!
#1690
b1111 #
b10000 "
1!
#1700
0!
#1710
b1111 "
b1110 #
1!
#1720
0!
#1730
b1101 #
b1110 "
1!
#1740
0!
#1750
b1101 "
b1100 #
1!
#1760
0!
#1770
b1011 #
b1100 "
1!
#1780
0!
#1790
b1011 "
b1010 #
1!
#1800
0!
#1810
b1001 #
b1010 "
1!
#1820
0!
#1830
b1001 "
b1000 #
1!
#1840
0!
#1850
b111 #
b1000 "
1!
#1860
0!
#1870
b111 "
b110 #
1!
#1880
0!
#1890
b101 #
b110 "
1!
#1900
0!
#1910
b101 "
b100 #
1!
#1920
0!
#1930
b11 #
b100 "
1!
#1940
0!
#1950
b11 "
b10 #
1!
#1960
0!
#1970
b1 #
b10 "
1!
#1980
0!
#1990
b1 "
1!
